{
    "pack": {
        "description": "dve3demo resources",
        "pack_format": 4,
        "_comment": "A pack_format of 4 requires json lang files. Note: we require v4 pack meta for all mods."
    }
}
